Data Scientist Handbook
…
The result is a new data frame.

Together these properties make it easy to chain together multiple simple steps to achieve a complex result.

Let’s dive in and see how these verbs work.

13.2 Filter rows with filter()

filter() allows you to subset observations based on their values. The first argument is the name of the data frame. The second and subsequent arguments are the expressions that filter the data frame. For example, we can select all flights on January 1st with:

filter()는 관측치 값을 기준으로 데이터를 subset

filter(flights, month == 1, day == 1)
#> # A tibble: 842 x 19
#>    year month   day dep_time sched_dep_time dep_delay arr_time
#>   <int> <int> <int>    <int>          <int>     <dbl>    <int>
#> 1  2013     1     1      517            515        2.      830
#> 2  2013     1     1      533            529        4.      850
#> 3  2013     1     1      542            540        2.      923
#> 4  2013     1     1      544            545       -1.     1004
#> 5  2013     1     1      554            600       -6.      812
#> 6  2013     1     1      554            558       -4.      740
#> # ... with 836 more rows, and 12 more variables: sched_arr_time <int>,
#> #   arr_delay <dbl>, carrier <chr>, flight <int>, tailnum <chr>,
#> #   origin <chr>, dest <chr>, air_time <dbl>, distance <dbl>, hour <dbl>,
#> #   minute <dbl>, time_hour <dttm>

When you run that line of code, dplyr executes the filtering operation and returns a new data frame. dplyr functions never modify their inputs, so if you want to save the result, you’ll need to use the assignment operator, <-:

결과를 저장하기 위해 변수에 assign 필요

jan1 <- filter(flights, month == 1, day == 1)

R either prints out the results, or saves them to a variable. If you want to do both, you can wrap the assignment in parentheses:

출력과 assign을 동시에 하기 위해 ()로 묶는다.

(dec25 <- filter(flights, month == 12, day == 25))
#> # A tibble: 719 x 19
#>    year month   day dep_time sched_dep_time dep_delay arr_time
#>   <int> <int> <int>    <int>          <int>     <dbl>    <int>
#> 1  2013    12    25      456            500       -4.      649
#> 2  2013    12    25      524            515        9.      805
#> 3  2013    12    25      542            540        2.      832
#> 4  2013    12    25      546            550       -4.     1022
#> 5  2013    12    25      556            600       -4.      730
#> 6  2013    12    25      557            600       -3.      743
#> # ... with 713 more rows, and 12 more variables: sched_arr_time <int>,
#> #   arr_delay <dbl>, carrier <chr>, flight <int>, tailnum <chr>,
#> #   origin <chr>, dest <chr>, air_time <dbl>, distance <dbl>, hour <dbl>,
#> #   minute <dbl>, time_hour <dttm>
…
The last key verb is summarise(). It collapses a data frame to a single row:

summarise(flights, delay = mean(dep_delay, na.rm = TRUE))
#> # A tibble: 1 x 1
#>   delay
#>   <dbl>
#> 1  12.6

(We’ll come back to what that na.rm = TRUE means very shortly.)

summarise() is not terribly useful unless we pair it with group_by(). This changes the unit of analysis from the complete dataset to individual groups. Then, when you use the dplyr verbs on a grouped data frame they’ll be automatically applied “by group”. For example, if we applied exactly the same code to a data frame grouped by date, we get the average delay per date:

by_day <- group_by(flights, year, month, day)
summarise(by_day, delay = mean(dep_delay, na.rm = TRUE))
#> # A tibble: 365 x 4
#> # Groups:   year, month [?]
#>    year month   day delay
#>   <int> <int> <int> <dbl>
#> 1  2013     1     1 11.5 
#> 2  2013     1     2 13.9 
#> 3  2013     1     3 11.0 
#> 4  2013     1     4  8.95
#> 5  2013     1     5  5.73
#> 6  2013     1     6  7.15
#> # ... with 359 more rows
…
This focuses on the transformations, not what’s being transformed, which makes the code easier to read. You can read it as a series of imperative statements: group, then summarise, then filter. As suggested by this reading, a good way to pronounce %>% when reading code is “then”.

Behind the scenes, x %>% f(y) turns into f(x, y), and x %>% f(y) %>% g(z) turns into g(f(x, y), z) and so on. You can use the pipe to rewrite multiple operations in a way that you can read left-to-right, top-to-bottom. We’ll use piping frequently from now on because it considerably improves the readability of code, and we’ll come back to it in more detail in [pipes].

Working with the pipe is one of the key criteria for belonging to the tidyverse. The only exception is ggplot2: it was written before the pipe was discovered. Unfortunately, the next iteration of ggplot2, ggvis, which does use the pipe, isn’t quite ready for prime time yet.

13.6.2 Missing values

You may have wondered about the na.rm argument we used above. What happens if we don’t set it?

flights %>% 
  group_by(year, month, day) %>% 
  summarise(mean = mean(dep_delay))
#> # A tibble: 365 x 4
#> # Groups:   year, month [?]
#>    year month   day  mean
#>   <int> <int> <int> <dbl>
#> 1  2013     1     1    NA
#> 2  2013     1     2    NA
#> 3  2013     1     3    NA
#> 4  2013     1     4    NA
#> 5  2013     1     5    NA
#> 6  2013     1     6    NA
#> # ... with 359 more rows

We get a lot of missing values! That’s because aggregation functions obey the usual rule of missing values: if there’s any missing value in the input, the output will be a missing value. Fortunately, all aggregation functions have an na.rm argument which removes the missing values prior to computation:

flights %>% 
  group_by(year, month, day) %>% 
  summarise(mean = mean(dep_delay, na.rm = TRUE))
#> # A tibble: 365 x 4
#> # Groups:   year, month [?]
#>    year month   day  mean
#>   <int> <int> <int> <dbl>
#> 1  2013     1     1 11.5 
#> 2  2013     1     2 13.9 
#> 3  2013     1     3 11.0 
#> 4  2013     1     4  8.95
#> 5  2013     1     5  5.73
#> 6  2013     1     6  7.15
#> # ... with 359 more rows

In this case, where missing values represent cancelled flights, we could also tackle the problem by first removing the cancelled flights. We’ll save this dataset so we can reuse in the next few examples.

not_cancelled <- flights %>% 
  filter(!is.na(dep_delay), !is.na(arr_delay))

not_cancelled %>% 
  group_by(year, month, day) %>% 
  summarise(mean = mean(dep_delay))
#> # A tibble: 365 x 4
#> # Groups:   year, month [?]
#>    year month   day  mean
#>   <int> <int> <int> <dbl>
#> 1  2013     1     1 11.4 
#> 2  2013     1     2 13.7 
#> 3  2013     1     3 10.9 
#> 4  2013     1     4  8.97
#> 5  2013     1     5  5.73
#> 6  2013     1     6  7.15
#> # ... with 359 more rows
…
13.6.4 Useful summary functions

Just using means, counts, and sum can get you a long way, but R provides many other useful summary functions:

Measures of location: we’ve used mean(x), but median(x) is also useful. The mean is the sum divided by the length; the median is a value where 50% of x is above it, and 50% is below it.

It’s sometimes useful to combine aggregation with logical subsetting. We haven’t talked about this sort of subsetting yet, but you’ll learn more about it in [subsetting].

not_cancelled %>% 
  group_by(year, month, day) %>% 
  summarise(
    avg_delay1 = mean(arr_delay),
    avg_delay2 = mean(arr_delay[arr_delay > 0]) # the average positive delay
  )
#> # A tibble: 365 x 5
#> # Groups:   year, month [?]
#>    year month   day avg_delay1 avg_delay2
#>   <int> <int> <int>      <dbl>      <dbl>
#> 1  2013     1     1      12.7        32.5
#> 2  2013     1     2      12.7        32.0
#> 3  2013     1     3       5.73       27.7
#> 4  2013     1     4      -1.93       28.3
#> 5  2013     1     5      -1.53       22.6
#> 6  2013     1     6       4.24       24.4
#> # ... with 359 more rows

Measures of spread: sd(x), IQR(x), mad(x). The mean squared deviation, or standard deviation or sd for short, is the standard measure of spread. The interquartile range IQR() and median absolute deviation mad(x) are robust equivalents that may be more useful if you have outliers.

# Why is distance to some destinations more variable than to others?
not_cancelled %>% 
  group_by(dest) %>% 
  summarise(distance_sd = sd(distance)) %>% 
  arrange(desc(distance_sd))
#> # A tibble: 104 x 2
#>   dest  distance_sd
#>   <chr>       <dbl>
#> 1 EGE         10.5 
#> 2 SAN         10.4 
#> 3 SFO         10.2 
#> 4 HNL         10.0 
#> 5 SEA          9.98
#> 6 LAS          9.91
#> # ... with 98 more rows

Measures of rank: min(x), quantile(x, 0.25), max(x). Quantiles are a generalisation of the median. For example, quantile(x, 0.25) will find a value of x that is greater than 25% of the values, and less than the remaining 75%.

# When do the first and last flights leave each day?
not_cancelled %>% 
  group_by(year, month, day) %>% 
  summarise(
    first = min(dep_time),
    last = max(dep_time)
  )
#> # A tibble: 365 x 5
#> # Groups:   year, month [?]
#>    year month   day first  last
#>   <int> <int> <int> <dbl> <dbl>
#> 1  2013     1     1  517. 2356.
#> 2  2013     1     2   42. 2354.
#> 3  2013     1     3   32. 2349.
#> 4  2013     1     4   25. 2358.
#> 5  2013     1     5   14. 2357.
#> 6  2013     1     6   16. 2355.
#> # ... with 359 more rows

Measures of position: first(x), nth(x, 2), last(x). These work similarly to x[1], x[2], and x[length(x)] but let you set a default value if that position does not exist (i.e. you’re trying to get the 3rd element from a group that only has two elements). For example, we can find the first and last departure for each day:

not_cancelled %>% 
  group_by(year, month, day) %>% 
  summarise(
    first_dep = first(dep_time), 
    last_dep = last(dep_time)
  )
#> # A tibble: 365 x 5
#> # Groups:   year, month [?]
#>    year month   day first_dep last_dep
#>   <int> <int> <int>     <int>    <int>
#> 1  2013     1     1       517     2356
#> 2  2013     1     2        42     2354
#> 3  2013     1     3        32     2349
#> 4  2013     1     4        25     2358
#> 5  2013     1     5        14     2357
#> 6  2013     1     6        16     2355
#> # ... with 359 more rows

These functions are complementary to filtering on ranks. Filtering gives you all variables, with each observation in a separate row:

not_cancelled %>% 
  group_by(year, month, day) %>% 
  mutate(r = min_rank(desc(dep_time))) %>% 
  filter(r %in% range(r))
#> # A tibble: 770 x 20
#> # Groups:   year, month, day [365]
#>    year month   day dep_time sched_dep_time dep_delay arr_time
#>   <int> <int> <int>    <int>          <int>     <dbl>    <int>
#> 1  2013     1     1      517            515        2.      830
#> 2  2013     1     1     2356           2359       -3.      425
#> 3  2013     1     2       42           2359       43.      518
#> 4  2013     1     2     2354           2359       -5.      413
#> 5  2013     1     3       32           2359       33.      504
#> 6  2013     1     3     2349           2359      -10.      434
#> # ... with 764 more rows, and 13 more variables: sched_arr_time <int>,
#> #   arr_delay <dbl>, carrier <chr>, flight <int>, tailnum <chr>,
#> #   origin <chr>, dest <chr>, air_time <dbl>, distance <dbl>, hour <dbl>,
#> #   minute <dbl>, time_hour <dttm>, r <int>

Counts: You’ve seen n(), which takes no arguments, and returns the size of the current group. To count the number of non-missing values, use sum(!is.na(x)). To count the number of distinct (unique) values, use n_distinct(x).

# Which destinations have the most carriers?
not_cancelled %>% 
  group_by(dest) %>% 
  summarise(carriers = n_distinct(carrier)) %>% 
  arrange(desc(carriers))
#> # A tibble: 104 x 2
#>   dest  carriers
#>   <chr>    <int>
#> 1 ATL          7
#> 2 BOS          7
#> 3 CLT          7
#> 4 ORD          7
#> 5 TPA          7
#> 6 AUS          6
#> # ... with 98 more rows

Counts are so useful that dplyr provides a simple helper if all you want is a count:

not_cancelled %>% 
  count(dest)
#> # A tibble: 104 x 2
#>   dest      n
#>   <chr> <int>
#> 1 ABQ     254
#> 2 ACK     264
#> 3 ALB     418
#> 4 ANC       8
#> 5 ATL   16837
#> 6 AUS    2411
#> # ... with 98 more rows

You can optionally provide a weight variable. For example, you could use this to “count” (sum) the total number of miles a plane flew:

not_cancelled %>% 
  count(tailnum, wt = distance)
#> # A tibble: 4,037 x 2
#>   tailnum       n
#>   <chr>     <dbl>
#> 1 D942DN    3418.
#> 2 N0EGMQ  239143.
#> 3 N10156  109664.
#> 4 N102UW   25722.
#> 5 N103US   24619.
#> 6 N104UW   24616.
#> # ... with 4,031 more rows

Counts and proportions of logical values: sum(x > 10), mean(y == 0). When used with numeric functions, TRUE is converted to 1 and FALSE to 0. This makes sum() and mean() very useful: sum(x) gives the number of TRUEs in x, and mean(x) gives the proportion.

# How many flights left before 5am? (these usually indicate delayed
# flights from the previous day)
not_cancelled %>% 
  group_by(year, month, day) %>% 
  summarise(n_early = sum(dep_time < 500))
#> # A tibble: 365 x 4
#> # Groups:   year, month [?]
#>    year month   day n_early
#>   <int> <int> <int>   <int>
#> 1  2013     1     1       0
#> 2  2013     1     2       3
#> 3  2013     1     3       4
#> 4  2013     1     4       3
#> 5  2013     1     5       3
#> 6  2013     1     6       2
#> # ... with 359 more rows

# What proportion of flights are delayed by more than an hour?
not_cancelled %>% 
  group_by(year, month, day) %>% 
  summarise(hour_perc = mean(arr_delay > 60))
#> # A tibble: 365 x 4
#> # Groups:   year, month [?]
#>    year month   day hour_perc
#>   <int> <int> <int>     <dbl>
#> 1  2013     1     1    0.0722
#> 2  2013     1     2    0.0851
#> 3  2013     1     3    0.0567
#> 4  2013     1     4    0.0396
#> 5  2013     1     5    0.0349
#> 6  2013     1     6    0.0470
#> # ... with 359 more rows

13.6.5 Grouping by multiple variables

When you group by multiple variables, each summary peels off one level of the grouping. That makes it easy to progressively roll up a dataset:

daily <- group_by(flights, year, month, day)
(per_day   <- summarise(daily, flights = n()))
#> # A tibble: 365 x 4
#> # Groups:   year, month [?]
#>    year month   day flights
#>   <int> <int> <int>   <int>
#> 1  2013     1     1     842
#> 2  2013     1     2     943
#> 3  2013     1     3     914
#> 4  2013     1     4     915
#> 5  2013     1     5     720
#> 6  2013     1     6     832
#> # ... with 359 more rows
(per_month <- summarise(per_day, flights = sum(flights)))
#> # A tibble: 12 x 3
#> # Groups:   year [?]
#>    year month flights
#>   <int> <int>   <int>
#> 1  2013     1   27004
#> 2  2013     2   24951
#> 3  2013     3   28834
#> 4  2013     4   28330
#> 5  2013     5   28796
#> 6  2013     6   28243
#> # ... with 6 more rows
…
Which carrier has the worst delays? Challenge: can you disentangle the effects of bad airports vs. bad carriers? Why/why not? (Hint: think about flights %>% group_by(carrier, dest) %>% summarise(n()))

What does the sort argument to count() do. When might you use it?

13.7 Grouped mutates (and filters)

Grouping is most useful in conjunction with summarise(), but you can also do convenient operations with mutate() and filter():

Find the worst members of each group:

flights_sml %>% 
  group_by(year, month, day) %>%
  filter(rank(desc(arr_delay)) < 10)
#> # A tibble: 3,306 x 7
#> # Groups:   year, month, day [365]
#>    year month   day dep_delay arr_delay distance air_time
#>   <int> <int> <int>     <dbl>     <dbl>    <dbl>    <dbl>
#> 1  2013     1     1      853.      851.     184.      41.
#> 2  2013     1     1      290.      338.    1134.     213.
#> 3  2013     1     1      260.      263.     266.      46.
#> 4  2013     1     1      157.      174.     213.      60.
#> 5  2013     1     1      216.      222.     708.     121.
#> 6  2013     1     1      255.      250.     589.     115.
#> # ... with 3,300 more rows
…
